# HTTP Cookie File
.uzbl.org	TRUE	/	FALSE	1458695256	__utmt	1
.uzbl.org	TRUE	/	FALSE	1521766656	__utma	185784813.1341999950.1458694657.1458694657.1458694657.1
.uzbl.org	TRUE	/	FALSE	1458696456	__utmb	185784813.1.10.1458694657
.uzbl.org	TRUE	/	FALSE	1474462656	__utmz	185784813.1458694657.1.1.utmcsr=(direct)|utmccn=(direct)|utmcmd=(none)
.uzbl.org	TRUE	/	FALSE	1458694656	__utmv	
